{       "esURL": "http://localhost:9200",
        "lastRunList": [
                {
                        "jobName": "bcbsne-subscriber-auth",
                        "startTime": "SSSS-MM-DDTHH:MM:SS.SSSZEDT",
                        "endTime": "EEEE-MM-DDTHH:MM:SS.SSSZEDT"
                }
        ]
}